<?xml version="1.0" encoding="UTF-8" standalone="no"?>
<!-- Created with Inkscape (http://www.inkscape.org/) -->

<svg
   xmlns:dc="http://purl.org/dc/elements/1.1/"
   xmlns:cc="http://creativecommons.org/ns#"
   xmlns:rdf="http://www.w3.org/1999/02/22-rdf-syntax-ns#"
   xmlns:svg="http://www.w3.org/2000/svg"
   xmlns="http://www.w3.org/2000/svg"
   xmlns:sodipodi="http://sodipodi.sourceforge.net/DTD/sodipodi-0.dtd"
   xmlns:inkscape="http://www.inkscape.org/namespaces/inkscape"
   width="297mm"
   height="210mm"
   viewBox="0 0 1052.3622 744.09445"
   id="svg2"
   version="1.1"
   inkscape:version="0.91 r13725"
   sodipodi:docname="client-structure.svg"
   inkscape:export-filename="/home/carsten/programmieren/CriticalMission.gitlab.io/img/client-structure.png"
   inkscape:export-xdpi="92"
   inkscape:export-ydpi="92">
  <defs
     id="defs4">
    <marker
       inkscape:isstock="true"
       style="overflow:visible;"
       id="marker5227"
       refX="0.0"
       refY="0.0"
       orient="auto"
       inkscape:stockid="Arrow1Mend">
      <path
         transform="scale(0.4) rotate(180) translate(10,0)"
         style="fill-rule:evenodd;stroke:#767676;stroke-width:1pt;stroke-opacity:1;fill:#767676;fill-opacity:1"
         d="M 0.0,0.0 L 5.0,-5.0 L -12.5,0.0 L 5.0,5.0 L 0.0,0.0 z "
         id="path5229" />
    </marker>
    <marker
       inkscape:isstock="true"
       style="overflow:visible"
       id="marker5169"
       refX="0.0"
       refY="0.0"
       orient="auto"
       inkscape:stockid="Arrow1Mstart">
      <path
         transform="scale(0.4) translate(10,0)"
         style="fill-rule:evenodd;stroke:#767676;stroke-width:1pt;stroke-opacity:1;fill:#767676;fill-opacity:1"
         d="M 0.0,0.0 L 5.0,-5.0 L -12.5,0.0 L 5.0,5.0 L 0.0,0.0 z "
         id="path5171" />
    </marker>
    <marker
       inkscape:stockid="Arrow1Mstart"
       orient="auto"
       refY="0.0"
       refX="0.0"
       id="Arrow1Mstart"
       style="overflow:visible"
       inkscape:isstock="true"
       inkscape:collect="always">
      <path
         id="path5033"
         d="M 0.0,0.0 L 5.0,-5.0 L -12.5,0.0 L 5.0,5.0 L 0.0,0.0 z "
         style="fill-rule:evenodd;stroke:#767676;stroke-width:1pt;stroke-opacity:1;fill:#767676;fill-opacity:1"
         transform="scale(0.4) translate(10,0)" />
    </marker>
    <marker
       inkscape:stockid="Arrow1Mend"
       orient="auto"
       refY="0.0"
       refX="0.0"
       id="Arrow1Mend"
       style="overflow:visible;"
       inkscape:isstock="true"
       inkscape:collect="always">
      <path
         id="path5036"
         d="M 0.0,0.0 L 5.0,-5.0 L -12.5,0.0 L 5.0,5.0 L 0.0,0.0 z "
         style="fill-rule:evenodd;stroke:#767676;stroke-width:1pt;stroke-opacity:1;fill:#767676;fill-opacity:1"
         transform="scale(0.4) rotate(180) translate(10,0)" />
    </marker>
    <marker
       inkscape:stockid="Arrow2Mend"
       orient="auto"
       refY="0.0"
       refX="0.0"
       id="Arrow2Mend"
       style="overflow:visible;"
       inkscape:isstock="true">
      <path
         id="path5054"
         style="fill-rule:evenodd;stroke-width:0.625;stroke-linejoin:round;stroke:#767676;stroke-opacity:1;fill:#767676;fill-opacity:1"
         d="M 8.7185878,4.0337352 L -2.2072895,0.016013256 L 8.7185884,-4.0017078 C 6.9730900,-1.6296469 6.9831476,1.6157441 8.7185878,4.0337352 z "
         transform="scale(0.6) rotate(180) translate(0,0)" />
    </marker>
    <marker
       inkscape:stockid="Arrow1Lend"
       orient="auto"
       refY="0.0"
       refX="0.0"
       id="Arrow1Lend"
       style="overflow:visible;"
       inkscape:isstock="true">
      <path
         id="path5030"
         d="M 0.0,0.0 L 5.0,-5.0 L -12.5,0.0 L 5.0,5.0 L 0.0,0.0 z "
         style="fill-rule:evenodd;stroke:#767676;stroke-width:1pt;stroke-opacity:1;fill:#767676;fill-opacity:1"
         transform="scale(0.8) rotate(180) translate(12.5,0)" />
    </marker>
    <marker
       inkscape:stockid="Arrow2Mend"
       orient="auto"
       refY="0"
       refX="0"
       id="Arrow2Mend-8"
       style="overflow:visible"
       inkscape:isstock="true">
      <path
         inkscape:connector-curvature="0"
         id="path5054-5"
         style="fill:#767676;fill-opacity:1;fill-rule:evenodd;stroke:#767676;stroke-width:0.625;stroke-linejoin:round;stroke-opacity:1"
         d="M 8.7185878,4.0337352 -2.2072895,0.01601326 8.7185884,-4.0017078 c -1.7454984,2.3720609 -1.7354408,5.6174519 -6e-7,8.035443 z"
         transform="scale(-0.6,-0.6)" />
    </marker>
  </defs>
  <sodipodi:namedview
     id="base"
     pagecolor="#0b1123"
     bordercolor="#6f6f6f"
     borderopacity="1"
     inkscape:pageopacity="0"
     inkscape:pageshadow="2"
     inkscape:zoom="0.7"
     inkscape:cx="343.36911"
     inkscape:cy="372.70053"
     inkscape:document-units="px"
     inkscape:current-layer="layer1"
     showgrid="false"
     showguides="true"
     inkscape:guide-bbox="true"
     fit-margin-top="0"
     fit-margin-left="0"
     fit-margin-right="0"
     fit-margin-bottom="0"
     inkscape:window-width="1920"
     inkscape:window-height="1015"
     inkscape:window-x="0"
     inkscape:window-y="0"
     inkscape:window-maximized="1" />
  <metadata
     id="metadata7">
    <rdf:RDF>
      <cc:Work
         rdf:about="">
        <dc:format>image/svg+xml</dc:format>
        <dc:type
           rdf:resource="http://purl.org/dc/dcmitype/StillImage" />
        <dc:title></dc:title>
      </cc:Work>
    </rdf:RDF>
  </metadata>
  <g
     inkscape:label="Ebene 1"
     inkscape:groupmode="layer"
     id="layer1"
     transform="translate(-64.499565,282.99737)">
    <g
       id="g4487"
       transform="translate(-3.0304576,506.08642)">
      <path
         inkscape:connector-curvature="0"
         id="path4348"
         d="m 703.17064,-177.74009 a 28.99536,28.987074 0 0 0 -28.64565,24.73138 34.20801,34.198235 0 0 0 -9.1453,-1.28066 34.20801,34.198235 0 0 0 -34.20801,34.19824 34.20801,34.198235 0 0 0 21.4584,31.706391 21.827969,21.821732 0 0 0 21.21966,16.82126 21.827969,21.821732 0 0 0 6.84695,-1.129253 32.253267,32.244051 0 0 0 25.73261,12.854615 32.253267,32.244051 0 0 0 21.23927,-8.031241 24.760084,24.753008 0 0 0 16.22564,6.077318 24.760084,24.753008 0 0 0 24.25918,-19.810044 25.085874,25.078706 0 0 0 8.64643,1.570985 25.085874,25.078706 0 0 0 25.08587,-25.078701 25.085874,25.078706 0 0 0 -18.82153,-24.25225 33.230637,33.221142 0 0 0 0.57726,-6.03813 33.230637,33.221142 0 0 0 -33.23166,-33.22038 33.230637,33.221142 0 0 0 -21.03436,7.53073 28.99536,28.987074 0 0 0 -26.20476,-16.65026 z"
         style="color:#000000;clip-rule:nonzero;display:inline;overflow:visible;visibility:visible;opacity:1;isolation:auto;mix-blend-mode:normal;color-interpolation:sRGB;color-interpolation-filters:linearRGB;solid-color:#000000;solid-opacity:1;fill:#828282;fill-opacity:0.28627451;fill-rule:nonzero;stroke:#767676;stroke-width:1.25;stroke-linecap:butt;stroke-linejoin:miter;stroke-miterlimit:4;stroke-dasharray:none;stroke-dashoffset:0;stroke-opacity:1;marker:none;color-rendering:auto;image-rendering:auto;shape-rendering:auto;text-rendering:auto;enable-background:accumulate" />
      <text
         transform="scale(1.0001472,0.99985282)"
         sodipodi:linespacing="0%"
         id="text4146-6-1-6"
         y="-108.71254"
         x="711.72156"
         style="font-style:normal;font-variant:normal;font-weight:normal;font-stretch:normal;font-size:17.92749786px;line-height:0%;font-family:'Marketing Script';-inkscape-font-specification:'Marketing Script';text-align:center;letter-spacing:0px;word-spacing:0px;text-anchor:middle;fill:#7d96a3;fill-opacity:1;stroke:none;stroke-width:1px;stroke-linecap:butt;stroke-linejoin:miter;stroke-opacity:1"
         xml:space="preserve"><tspan
           style="font-style:normal;font-variant:normal;font-weight:500;font-stretch:normal;font-family:Orbitron;-inkscape-font-specification:'Orbitron Medium';fill:#7d96a3;fill-opacity:1"
           y="-108.71254"
           x="711.72156"
           id="tspan4148-7-2-1"
           sodipodi:role="line">Network</tspan></text>
    </g>
    <g
       id="g4290"
       transform="translate(657.86184,216.93026)">
      <rect
         ry="1.3258198"
         rx="1.3258198"
         y="167.11952"
         x="210.23718"
         height="38.112022"
         width="199.94249"
         id="rect4136-3-5"
         style="color:#000000;clip-rule:nonzero;display:inline;overflow:visible;visibility:visible;opacity:1;isolation:auto;mix-blend-mode:normal;color-interpolation:sRGB;color-interpolation-filters:linearRGB;solid-color:#000000;solid-opacity:1;fill:#828282;fill-opacity:0.28625955;fill-rule:nonzero;stroke:#767676;stroke-width:1.24999988;stroke-linecap:butt;stroke-linejoin:miter;stroke-miterlimit:2;stroke-dasharray:none;stroke-dashoffset:0;stroke-opacity:1;marker:none;color-rendering:auto;image-rendering:auto;shape-rendering:auto;text-rendering:auto;enable-background:accumulate" />
      <text
         transform="scale(1.0000202,0.99997981)"
         sodipodi:linespacing="0%"
         id="text4146-6-9"
         y="193.37294"
         x="216.93124"
         style="font-style:normal;font-variant:normal;font-weight:normal;font-stretch:normal;font-size:23.73539352px;line-height:0%;font-family:'Marketing Script';-inkscape-font-specification:'Marketing Script';text-align:start;letter-spacing:0px;word-spacing:0px;text-anchor:start;fill:#7d96a3;fill-opacity:1;stroke:none;stroke-width:1px;stroke-linecap:butt;stroke-linejoin:miter;stroke-opacity:1"
         xml:space="preserve"><tspan
           style="font-style:normal;font-variant:normal;font-weight:500;font-stretch:normal;font-family:Orbitron;-inkscape-font-specification:'Orbitron Medium';text-align:start;text-anchor:start;fill:#7d96a3;fill-opacity:1"
           y="193.37294"
           x="216.93124"
           id="tspan4148-7-22"
           sodipodi:role="line">Server (Java)</tspan></text>
    </g>
    <rect
       style="color:#000000;clip-rule:nonzero;display:inline;overflow:visible;visibility:visible;opacity:1;isolation:auto;mix-blend-mode:normal;color-interpolation:sRGB;color-interpolation-filters:linearRGB;solid-color:#000000;solid-opacity:1;fill:#828282;fill-opacity:0.28625955;fill-rule:nonzero;stroke:#767676;stroke-width:1.24999988;stroke-linecap:butt;stroke-linejoin:miter;stroke-miterlimit:2;stroke-dasharray:none;stroke-dashoffset:0;stroke-opacity:1;marker:none;color-rendering:auto;image-rendering:auto;shape-rendering:auto;text-rendering:auto;enable-background:accumulate"
       id="rect4136-3-7"
       width="885.16443"
       height="553.3493"
       x="109.72701"
       y="-246.62161"
       rx="1.32582"
       ry="1.32582" />
    <text
       xml:space="preserve"
       style="font-style:normal;font-variant:normal;font-weight:normal;font-stretch:normal;font-size:23.73539352px;line-height:0%;font-family:'Marketing Script';-inkscape-font-specification:'Marketing Script';text-align:start;letter-spacing:0px;word-spacing:0px;text-anchor:start;fill:#7d96a3;fill-opacity:1;stroke:none;stroke-width:1px;stroke-linecap:butt;stroke-linejoin:miter;stroke-opacity:1"
       x="115.88242"
       y="-220.37654"
       id="text4146-6-6"
       sodipodi:linespacing="0%"
       transform="scale(1.0000202,0.99997981)"><tspan
         sodipodi:role="line"
         id="tspan4148-7-5"
         x="115.88242"
         y="-220.37654"
         style="font-style:normal;font-variant:normal;font-weight:500;font-stretch:normal;font-family:Orbitron;-inkscape-font-specification:'Orbitron Medium';text-align:start;text-anchor:start;fill:#7d96a3;fill-opacity:1">Client (Browser)</tspan></text>
    <path
       sodipodi:nodetypes="cc"
       inkscape:connector-curvature="0"
       id="path4428-2-0-63-2-0-6-6"
       d="m 798.91071,401.69732 69.64001,0"
       style="fill:none;fill-rule:evenodd;stroke:#767676;stroke-width:1.25;stroke-linecap:butt;stroke-linejoin:miter;stroke-miterlimit:4;stroke-dasharray:none;stroke-opacity:1" />
    <rect
       style="color:#000000;clip-rule:nonzero;display:inline;overflow:visible;visibility:visible;opacity:1;isolation:auto;mix-blend-mode:normal;color-interpolation:sRGB;color-interpolation-filters:linearRGB;solid-color:#000000;solid-opacity:1;fill:#828282;fill-opacity:0.28625955;fill-rule:nonzero;stroke:#767676;stroke-width:1.25;stroke-linecap:butt;stroke-linejoin:miter;stroke-miterlimit:2;stroke-dasharray:none;stroke-dashoffset:0;stroke-opacity:1;marker:none;color-rendering:auto;image-rendering:auto;shape-rendering:auto;text-rendering:auto;enable-background:accumulate"
       id="rect4136-3-9-9-2-4-8-6"
       width="159.65129"
       height="76.421692"
       x="139.43213"
       y="204.69328"
       rx="1.32582"
       ry="1.3258201" />
    <rect
       style="color:#000000;clip-rule:nonzero;display:inline;overflow:visible;visibility:visible;opacity:1;isolation:auto;mix-blend-mode:normal;color-interpolation:sRGB;color-interpolation-filters:linearRGB;solid-color:#000000;solid-opacity:1;fill:none;fill-opacity:0.28625955;fill-rule:nonzero;stroke:#767676;stroke-width:1.25;stroke-linecap:butt;stroke-linejoin:miter;stroke-miterlimit:2;stroke-dasharray:5.00000003, 2.50000002;stroke-dashoffset:0;stroke-opacity:1;marker:none;color-rendering:auto;image-rendering:auto;shape-rendering:auto;text-rendering:auto;enable-background:accumulate"
       id="rect4136-3-9-8-3"
       width="854.27686"
       height="122.86693"
       x="123.47981"
       y="169.47234"
       rx="1.3258197"
       ry="1.32582" />
    <rect
       style="color:#000000;clip-rule:nonzero;display:inline;overflow:visible;visibility:visible;opacity:1;isolation:auto;mix-blend-mode:normal;color-interpolation:sRGB;color-interpolation-filters:linearRGB;solid-color:#000000;solid-opacity:1;fill:#767676;fill-opacity:1;fill-rule:nonzero;stroke:#767676;stroke-width:1.24999988;stroke-linecap:butt;stroke-linejoin:miter;stroke-miterlimit:2;stroke-dasharray:none;stroke-dashoffset:0;stroke-opacity:1;marker:none;color-rendering:auto;image-rendering:auto;shape-rendering:auto;text-rendering:auto;enable-background:accumulate"
       id="rect4136-3-9-7-0-9-5"
       width="9.7083759"
       height="10.144082"
       x="-224.08633"
       y="-286.27838"
       rx="1.32582"
       ry="1.32582"
       transform="scale(-1,-1)" />
    <text
       xml:space="preserve"
       style="font-style:normal;font-variant:normal;font-weight:normal;font-stretch:normal;font-size:17.92749786px;line-height:0%;font-family:'Marketing Script';-inkscape-font-specification:'Marketing Script';text-align:start;letter-spacing:0px;word-spacing:0px;text-anchor:start;fill:#767676;fill-opacity:1;stroke:none;stroke-width:1px;stroke-linecap:butt;stroke-linejoin:miter;stroke-opacity:1"
       x="131.54501"
       y="192.27522"
       id="text4146-6-1-3-5-0"
       sodipodi:linespacing="0%"
       transform="scale(1.0001472,0.99985282)"><tspan
         sodipodi:role="line"
         id="tspan4148-7-2-74-4-7"
         x="131.54501"
         y="192.27522"
         style="font-style:normal;font-variant:normal;font-weight:500;font-stretch:normal;font-family:Orbitron;-inkscape-font-specification:'Orbitron Medium';text-align:start;text-anchor:start;fill:#767676;fill-opacity:1">lib</tspan></text>
    <path
       sodipodi:nodetypes="cc"
       inkscape:connector-curvature="0"
       id="path4428-2-0-63-2-0-6-6-6"
       d="m -38.934749,-108.15693 0,24.474193"
       style="fill:none;fill-rule:evenodd;stroke:#767676;stroke-width:1.24999988;stroke-linecap:butt;stroke-linejoin:miter;stroke-miterlimit:4;stroke-dasharray:none;stroke-opacity:1;marker-end:url(#Arrow1Mend)" />
    <rect
       style="color:#000000;clip-rule:nonzero;display:inline;overflow:visible;visibility:visible;opacity:1;isolation:auto;mix-blend-mode:normal;color-interpolation:sRGB;color-interpolation-filters:linearRGB;solid-color:#000000;solid-opacity:1;fill:#767676;fill-opacity:1;fill-rule:nonzero;stroke:#767676;stroke-width:1.24999988;stroke-linecap:butt;stroke-linejoin:miter;stroke-miterlimit:2;stroke-dasharray:none;stroke-dashoffset:0;stroke-opacity:1;marker:none;color-rendering:auto;image-rendering:auto;shape-rendering:auto;text-rendering:auto;enable-background:accumulate"
       id="rect4136-3-9-7-0-9-5-8"
       width="9.7083759"
       height="10.144082"
       x="-108.64967"
       y="33.895084"
       rx="1.32582"
       ry="1.32582"
       transform="matrix(0,1,-1,0,0,0)" />
    <path
       sodipodi:nodetypes="cc"
       inkscape:connector-curvature="0"
       id="path4428-2-0-63-2-0-6-6-6-2-0"
       d="m -87.163217,-100.91422 0,44.693415"
       style="fill:none;fill-rule:evenodd;stroke:#767676;stroke-width:1.25;stroke-linecap:butt;stroke-linejoin:miter;stroke-miterlimit:4;stroke-dasharray:none;stroke-opacity:1;marker-start:url(#Arrow1Mstart);marker-end:url(#Arrow2Mend-8)" />
    <path
       sodipodi:nodetypes="ccc"
       inkscape:connector-curvature="0"
       id="path4428-2-0-63-2-0-6-6-3"
       d="m 399.19691,288.80597 0,97.86533 228.7481,0"
       style="fill:none;fill-rule:evenodd;stroke:#767676;stroke-width:1.25;stroke-linecap:butt;stroke-linejoin:miter;stroke-miterlimit:4;stroke-dasharray:none;stroke-opacity:1;marker-start:url(#marker5169)" />
    <text
       xml:space="preserve"
       style="font-style:normal;font-variant:normal;font-weight:normal;font-stretch:normal;font-size:17.92749786px;line-height:0%;font-family:'Marketing Script';-inkscape-font-specification:'Marketing Script';text-align:start;letter-spacing:0px;word-spacing:0px;text-anchor:start;fill:#7d96a3;fill-opacity:1;stroke:none;stroke-width:1px;stroke-linecap:butt;stroke-linejoin:miter;stroke-opacity:1"
       x="146.79237"
       y="224.45976"
       id="text4146-6-1-3-5-7"
       sodipodi:linespacing="0%"
       transform="scale(1.0001472,0.99985282)"><tspan
         sodipodi:role="line"
         id="tspan4148-7-2-74-4-5"
         x="146.79237"
         y="224.45976"
         style="font-style:normal;font-variant:normal;font-weight:500;font-stretch:normal;font-family:Orbitron;-inkscape-font-specification:'Orbitron Medium';text-align:start;text-anchor:start;fill:#7d96a3;fill-opacity:1">AJAX</tspan></text>
    <rect
       style="color:#000000;clip-rule:nonzero;display:inline;overflow:visible;visibility:visible;opacity:1;isolation:auto;mix-blend-mode:normal;color-interpolation:sRGB;color-interpolation-filters:linearRGB;solid-color:#000000;solid-opacity:1;fill:#828282;fill-opacity:0.28625955;fill-rule:nonzero;stroke:#767676;stroke-width:1.25;stroke-linecap:butt;stroke-linejoin:miter;stroke-miterlimit:2;stroke-dasharray:none;stroke-dashoffset:0;stroke-opacity:1;marker:none;color-rendering:auto;image-rendering:auto;shape-rendering:auto;text-rendering:auto;enable-background:accumulate"
       id="rect4136-3-9-9-2-4-8-6-2"
       width="159.65129"
       height="76.421692"
       x="319.43213"
       y="204.69328"
       rx="1.32582"
       ry="1.3258201" />
    <text
       xml:space="preserve"
       style="font-style:normal;font-variant:normal;font-weight:normal;font-stretch:normal;font-size:17.92749786px;line-height:0%;font-family:'Marketing Script';-inkscape-font-specification:'Marketing Script';text-align:start;letter-spacing:0px;word-spacing:0px;text-anchor:start;fill:#7d96a3;fill-opacity:1;stroke:none;stroke-width:1px;stroke-linecap:butt;stroke-linejoin:miter;stroke-opacity:1"
       x="326.76593"
       y="224.45978"
       id="text4146-6-1-3-5-7-9"
       sodipodi:linespacing="0%"
       transform="scale(1.0001472,0.99985282)"><tspan
         sodipodi:role="line"
         id="tspan4148-7-2-74-4-5-1"
         x="326.76593"
         y="224.45978"
         style="font-style:normal;font-variant:normal;font-weight:500;font-stretch:normal;font-family:Orbitron;-inkscape-font-specification:'Orbitron Medium';text-align:start;text-anchor:start;fill:#7d96a3;fill-opacity:1">WebSockets</tspan></text>
    <rect
       style="color:#000000;clip-rule:nonzero;display:inline;overflow:visible;visibility:visible;opacity:1;isolation:auto;mix-blend-mode:normal;color-interpolation:sRGB;color-interpolation-filters:linearRGB;solid-color:#000000;solid-opacity:1;fill:#828282;fill-opacity:0.28625955;fill-rule:nonzero;stroke:#767676;stroke-width:1.25;stroke-linecap:butt;stroke-linejoin:miter;stroke-miterlimit:2;stroke-dasharray:none;stroke-dashoffset:0;stroke-opacity:1;marker:none;color-rendering:auto;image-rendering:auto;shape-rendering:auto;text-rendering:auto;enable-background:accumulate"
       id="rect4136-3-9-9-2-4-8-6-2-2"
       width="159.65129"
       height="76.421692"
       x="499.43213"
       y="204.69328"
       rx="1.32582"
       ry="1.3258201" />
    <text
       xml:space="preserve"
       style="font-style:normal;font-variant:normal;font-weight:normal;font-stretch:normal;font-size:17.92749786px;line-height:0%;font-family:'Marketing Script';-inkscape-font-specification:'Marketing Script';text-align:start;letter-spacing:0px;word-spacing:0px;text-anchor:start;fill:#7d96a3;fill-opacity:1;stroke:none;stroke-width:1px;stroke-linecap:butt;stroke-linejoin:miter;stroke-opacity:1"
       x="506.73956"
       y="224.45978"
       id="text4146-6-1-3-5-7-9-7"
       sodipodi:linespacing="0%"
       transform="scale(1.0001472,0.99985282)"><tspan
         sodipodi:role="line"
         id="tspan4148-7-2-74-4-5-1-0"
         x="506.73956"
         y="224.45978"
         style="font-style:normal;font-variant:normal;font-weight:500;font-stretch:normal;font-family:Orbitron;-inkscape-font-specification:'Orbitron Medium';text-align:start;text-anchor:start;fill:#7d96a3;fill-opacity:1">Input</tspan></text>
    <rect
       style="color:#000000;clip-rule:nonzero;display:inline;overflow:visible;visibility:visible;opacity:1;isolation:auto;mix-blend-mode:normal;color-interpolation:sRGB;color-interpolation-filters:linearRGB;solid-color:#000000;solid-opacity:1;fill:#767676;fill-opacity:1;fill-rule:nonzero;stroke:#767676;stroke-width:1.24999988;stroke-linecap:butt;stroke-linejoin:miter;stroke-miterlimit:2;stroke-dasharray:none;stroke-dashoffset:0;stroke-opacity:1;marker:none;color-rendering:auto;image-rendering:auto;shape-rendering:auto;text-rendering:auto;enable-background:accumulate"
       id="rect4136-3-9-7-0-9-5-9"
       width="9.7083759"
       height="10.144082"
       x="-404.0863"
       y="-286.27838"
       rx="1.32582"
       ry="1.32582"
       transform="scale(-1,-1)" />
    <path
       sodipodi:nodetypes="ccc"
       inkscape:connector-curvature="0"
       id="path4428-2-0-63-2-0-6-6-3-3"
       d="m 219.35182,284.1835 0,122.4878 413.30253,0"
       style="fill:none;fill-rule:evenodd;stroke:#767676;stroke-width:1.25;stroke-linecap:butt;stroke-linejoin:miter;stroke-miterlimit:4;stroke-dasharray:none;stroke-opacity:1;marker-end:url(#marker5227)" />
    <text
       xml:space="preserve"
       style="font-style:normal;font-variant:normal;font-weight:normal;font-stretch:normal;font-size:11.43303585px;line-height:0%;font-family:'Marketing Script';-inkscape-font-specification:'Marketing Script';text-align:start;letter-spacing:0px;word-spacing:0px;text-anchor:start;fill:#767676;fill-opacity:1;stroke:none;stroke-width:1px;stroke-linecap:butt;stroke-linejoin:miter;stroke-opacity:1"
       x="403.14233"
       y="383.23312"
       id="text4146-6-1-3-5-0-6"
       sodipodi:linespacing="0%"
       transform="scale(1.0001472,0.99985282)"><tspan
         sodipodi:role="line"
         id="tspan4148-7-2-74-4-7-06"
         x="403.14233"
         y="383.23312"
         style="font-style:normal;font-variant:normal;font-weight:500;font-stretch:normal;font-family:Orbitron;-inkscape-font-specification:'Orbitron Medium';text-align:start;text-anchor:start;fill:#767676;fill-opacity:1">events</tspan></text>
    <text
       xml:space="preserve"
       style="font-style:normal;font-variant:normal;font-weight:normal;font-stretch:normal;font-size:11.43303585px;line-height:0%;font-family:'Marketing Script';-inkscape-font-specification:'Marketing Script';text-align:start;letter-spacing:0px;word-spacing:0px;text-anchor:start;fill:#767676;fill-opacity:1;stroke:none;stroke-width:1px;stroke-linecap:butt;stroke-linejoin:miter;stroke-opacity:1"
       x="222.41515"
       y="403.77188"
       id="text4146-6-1-3-5-0-6-2"
       sodipodi:linespacing="0%"
       transform="scale(1.0001472,0.99985282)"><tspan
         sodipodi:role="line"
         id="tspan4148-7-2-74-4-7-06-6"
         x="222.41515"
         y="403.77188"
         style="font-style:normal;font-variant:normal;font-weight:500;font-stretch:normal;font-family:Orbitron;-inkscape-font-specification:'Orbitron Medium';text-align:start;text-anchor:start;fill:#767676;fill-opacity:1">input</tspan></text>
    <rect
       style="color:#000000;clip-rule:nonzero;display:inline;overflow:visible;visibility:visible;opacity:1;isolation:auto;mix-blend-mode:normal;color-interpolation:sRGB;color-interpolation-filters:linearRGB;solid-color:#000000;solid-opacity:1;fill:none;fill-opacity:0.28625955;fill-rule:nonzero;stroke:#767676;stroke-width:1.25;stroke-linecap:butt;stroke-linejoin:miter;stroke-miterlimit:2;stroke-dasharray:5.00000004, 2.50000002;stroke-dashoffset:0;stroke-opacity:1;marker:none;color-rendering:auto;image-rendering:auto;shape-rendering:auto;text-rendering:auto;enable-background:accumulate"
       id="rect4136-3-9-8-3-8"
       width="389.99115"
       height="344.09033"
       x="123.47981"
       y="-191.75107"
       rx="1.3258197"
       ry="1.32582" />
    <text
       xml:space="preserve"
       style="font-style:normal;font-variant:normal;font-weight:normal;font-stretch:normal;font-size:17.92749786px;line-height:0%;font-family:'Marketing Script';-inkscape-font-specification:'Marketing Script';text-align:start;letter-spacing:0px;word-spacing:0px;text-anchor:start;fill:#767676;fill-opacity:1;stroke:none;stroke-width:1px;stroke-linecap:butt;stroke-linejoin:miter;stroke-opacity:1"
       x="131.54501"
       y="-167.77776"
       id="text4146-6-1-3-5-0-9"
       sodipodi:linespacing="0%"
       transform="scale(1.0001472,0.99985282)"><tspan
         sodipodi:role="line"
         id="tspan4148-7-2-74-4-7-2"
         x="131.54501"
         y="-167.77776"
         style="font-style:normal;font-variant:normal;font-weight:500;font-stretch:normal;font-family:Orbitron;-inkscape-font-specification:'Orbitron Medium';text-align:start;text-anchor:start;fill:#767676;fill-opacity:1">simulation</tspan></text>
    <rect
       style="color:#000000;clip-rule:nonzero;display:inline;overflow:visible;visibility:visible;opacity:1;isolation:auto;mix-blend-mode:normal;color-interpolation:sRGB;color-interpolation-filters:linearRGB;solid-color:#000000;solid-opacity:1;fill:none;fill-opacity:0.28625955;fill-rule:nonzero;stroke:#767676;stroke-width:1.25;stroke-linecap:butt;stroke-linejoin:miter;stroke-miterlimit:2;stroke-dasharray:5.00000006, 2.50000004;stroke-dashoffset:0;stroke-opacity:1;marker:none;color-rendering:auto;image-rendering:auto;shape-rendering:auto;text-rendering:auto;enable-background:accumulate"
       id="rect4136-3-9-8-3-8-7"
       width="162.10426"
       height="122.86693"
       x="815.6524"
       y="29.472347"
       rx="1.3258197"
       ry="1.32582" />
    <text
       xml:space="preserve"
       style="font-style:normal;font-variant:normal;font-weight:normal;font-stretch:normal;font-size:17.92749786px;line-height:0%;font-family:'Marketing Script';-inkscape-font-specification:'Marketing Script';text-align:start;letter-spacing:0px;word-spacing:0px;text-anchor:start;fill:#767676;fill-opacity:1;stroke:none;stroke-width:1px;stroke-linecap:butt;stroke-linejoin:miter;stroke-opacity:1"
       x="825.4433"
       y="52.25462"
       id="text4146-6-1-3-5-0-9-3"
       sodipodi:linespacing="0%"
       transform="scale(1.0001472,0.99985282)"><tspan
         sodipodi:role="line"
         id="tspan4148-7-2-74-4-7-2-6"
         x="825.4433"
         y="52.25462"
         style="font-style:normal;font-variant:normal;font-weight:500;font-stretch:normal;font-family:Orbitron;-inkscape-font-specification:'Orbitron Medium';text-align:start;text-anchor:start;fill:#767676;fill-opacity:1">dev console</tspan></text>
    <rect
       style="color:#000000;clip-rule:nonzero;display:inline;overflow:visible;visibility:visible;opacity:1;isolation:auto;mix-blend-mode:normal;color-interpolation:sRGB;color-interpolation-filters:linearRGB;solid-color:#000000;solid-opacity:1;fill:none;fill-opacity:0.28625955;fill-rule:nonzero;stroke:#767676;stroke-width:1.25;stroke-linecap:butt;stroke-linejoin:miter;stroke-miterlimit:2;stroke-dasharray:5.00000004, 2.50000002;stroke-dashoffset:0;stroke-opacity:1;marker:none;color-rendering:auto;image-rendering:auto;shape-rendering:auto;text-rendering:auto;enable-background:accumulate"
       id="rect4136-3-9-8-3-8-1"
       width="269.99115"
       height="344.09033"
       x="529.4798"
       y="-191.75105"
       rx="1.3258197"
       ry="1.32582" />
    <text
       xml:space="preserve"
       style="font-style:normal;font-variant:normal;font-weight:normal;font-stretch:normal;font-size:17.92749786px;line-height:0%;font-family:'Marketing Script';-inkscape-font-specification:'Marketing Script';text-align:start;letter-spacing:0px;word-spacing:0px;text-anchor:start;fill:#767676;fill-opacity:1;stroke:none;stroke-width:1px;stroke-linecap:butt;stroke-linejoin:miter;stroke-opacity:1"
       x="537.48541"
       y="-167.77774"
       id="text4146-6-1-3-5-0-9-2"
       sodipodi:linespacing="0%"
       transform="scale(1.0001472,0.99985282)"><tspan
         sodipodi:role="line"
         id="tspan4148-7-2-74-4-7-2-9"
         x="537.48541"
         y="-167.77774"
         style="font-style:normal;font-variant:normal;font-weight:500;font-stretch:normal;font-family:Orbitron;-inkscape-font-specification:'Orbitron Medium';text-align:start;text-anchor:start;fill:#767676;fill-opacity:1">application</tspan></text>
    <rect
       style="color:#000000;clip-rule:nonzero;display:inline;overflow:visible;visibility:visible;opacity:1;isolation:auto;mix-blend-mode:normal;color-interpolation:sRGB;color-interpolation-filters:linearRGB;solid-color:#000000;solid-opacity:1;fill:none;fill-opacity:0.28625955;fill-rule:nonzero;stroke:#767676;stroke-width:1.25;stroke-linecap:butt;stroke-linejoin:miter;stroke-miterlimit:2;stroke-dasharray:5.00000007, 2.50000003;stroke-dashoffset:0;stroke-opacity:1;marker:none;color-rendering:auto;image-rendering:auto;shape-rendering:auto;text-rendering:auto;enable-background:accumulate"
       id="rect4136-3-9-8-3-8-1-4"
       width="162.104"
       height="208.37605"
       x="815.65259"
       y="-191.75105"
       rx="1.3258197"
       ry="1.32582" />
    <text
       xml:space="preserve"
       style="font-style:normal;font-variant:normal;font-weight:normal;font-stretch:normal;font-size:17.92749786px;line-height:0%;font-family:'Marketing Script';-inkscape-font-specification:'Marketing Script';text-align:start;letter-spacing:0px;word-spacing:0px;text-anchor:start;fill:#767676;fill-opacity:1;stroke:none;stroke-width:1px;stroke-linecap:butt;stroke-linejoin:miter;stroke-opacity:1"
       x="824.92377"
       y="-167.77773"
       id="text4146-6-1-3-5-0-9-2-7"
       sodipodi:linespacing="0%"
       transform="scale(1.0001472,0.99985282)"><tspan
         sodipodi:role="line"
         id="tspan4148-7-2-74-4-7-2-9-8"
         x="824.92377"
         y="-167.77773"
         style="font-style:normal;font-variant:normal;font-weight:500;font-stretch:normal;font-family:Orbitron;-inkscape-font-specification:'Orbitron Medium';text-align:start;text-anchor:start;fill:#767676;fill-opacity:1">administration</tspan></text>
    <rect
       style="color:#000000;clip-rule:nonzero;display:inline;overflow:visible;visibility:visible;opacity:1;isolation:auto;mix-blend-mode:normal;color-interpolation:sRGB;color-interpolation-filters:linearRGB;solid-color:#000000;solid-opacity:1;fill:#828282;fill-opacity:0.28625955;fill-rule:nonzero;stroke:#767676;stroke-width:1.24999988;stroke-linecap:butt;stroke-linejoin:miter;stroke-miterlimit:2;stroke-dasharray:none;stroke-dashoffset:0;stroke-opacity:1;marker:none;color-rendering:auto;image-rendering:auto;shape-rendering:auto;text-rendering:auto;enable-background:accumulate"
       id="rect4136-3-9-9-2-4-8-6-4"
       width="228.3268"
       height="212.44746"
       x="139.43213"
       y="-155.30672"
       rx="1.3258201"
       ry="1.3258202" />
    <text
       xml:space="preserve"
       style="font-style:normal;font-variant:normal;font-weight:normal;font-stretch:normal;font-size:17.92749786px;line-height:0%;font-family:'Marketing Script';-inkscape-font-specification:'Marketing Script';text-align:start;letter-spacing:0px;word-spacing:0px;text-anchor:start;fill:#7d96a3;fill-opacity:1;stroke:none;stroke-width:1px;stroke-linecap:butt;stroke-linejoin:miter;stroke-opacity:1"
       x="146.79237"
       y="-135.59323"
       id="text4146-6-1-3-5-7-5"
       sodipodi:linespacing="0%"
       transform="scale(1.0001472,0.99985282)"><tspan
         sodipodi:role="line"
         id="tspan4148-7-2-74-4-5-0"
         x="146.79237"
         y="-135.59323"
         style="font-style:normal;font-variant:normal;font-weight:500;font-stretch:normal;font-family:Orbitron;-inkscape-font-specification:'Orbitron Medium';text-align:start;text-anchor:start;fill:#7d96a3;fill-opacity:1">ship</tspan></text>
    <rect
       style="color:#000000;clip-rule:nonzero;display:inline;overflow:visible;visibility:visible;opacity:1;isolation:auto;mix-blend-mode:normal;color-interpolation:sRGB;color-interpolation-filters:linearRGB;solid-color:#000000;solid-opacity:1;fill:none;fill-opacity:0.28625955;fill-rule:nonzero;stroke:#7d96a3;stroke-width:1.24999988;stroke-linecap:butt;stroke-linejoin:miter;stroke-miterlimit:2;stroke-dasharray:4.99999987, 2.49999994;stroke-dashoffset:0;stroke-opacity:1;marker:none;color-rendering:auto;image-rendering:auto;shape-rendering:auto;text-rendering:auto;enable-background:accumulate"
       id="rect4136-3-9-8-3-8-6"
       width="208.026"
       height="172.19289"
       x="150.98712"
       y="-123.75106"
       rx="1.3258196"
       ry="1.32582" />
    <text
       xml:space="preserve"
       style="font-style:normal;font-variant:normal;font-weight:normal;font-stretch:normal;font-size:17.92749786px;line-height:0%;font-family:'Marketing Script';-inkscape-font-specification:'Marketing Script';text-align:start;letter-spacing:0px;word-spacing:0px;text-anchor:start;fill:#7d96a3;fill-opacity:1;stroke:none;stroke-width:1px;stroke-linecap:butt;stroke-linejoin:miter;stroke-opacity:1"
       x="157.5412"
       y="-99.767723"
       id="text4146-6-1-3-5-0-9-1"
       sodipodi:linespacing="0%"
       transform="scale(1.0001472,0.99985282)"><tspan
         sodipodi:role="line"
         id="tspan4148-7-2-74-4-7-2-0"
         x="157.5412"
         y="-99.767723"
         style="font-style:normal;font-variant:normal;font-weight:500;font-stretch:normal;font-family:Orbitron;-inkscape-font-specification:'Orbitron Medium';text-align:start;text-anchor:start;fill:#7d96a3;fill-opacity:1">stations</tspan></text>
    <rect
       style="color:#000000;clip-rule:nonzero;display:inline;overflow:visible;visibility:visible;opacity:1;isolation:auto;mix-blend-mode:normal;color-interpolation:sRGB;color-interpolation-filters:linearRGB;solid-color:#000000;solid-opacity:1;fill:#828282;fill-opacity:0.28625955;fill-rule:nonzero;stroke:#767676;stroke-width:1.24999988;stroke-linecap:butt;stroke-linejoin:miter;stroke-miterlimit:2;stroke-dasharray:none;stroke-dashoffset:0;stroke-opacity:1;marker:none;color-rendering:auto;image-rendering:auto;shape-rendering:auto;text-rendering:auto;enable-background:accumulate"
       id="rect4136-3-9-9-2-4-8-6-6"
       width="30.351765"
       height="131.69653"
       x="159.63518"
       y="-91.361481"
       rx="1.32582"
       ry="1.32582" />
    <rect
       style="color:#000000;clip-rule:nonzero;display:inline;overflow:visible;visibility:visible;opacity:1;isolation:auto;mix-blend-mode:normal;color-interpolation:sRGB;color-interpolation-filters:linearRGB;solid-color:#000000;solid-opacity:1;fill:#828282;fill-opacity:0.28625955;fill-rule:nonzero;stroke:#767676;stroke-width:1.24999988;stroke-linecap:butt;stroke-linejoin:miter;stroke-miterlimit:2;stroke-dasharray:none;stroke-dashoffset:0;stroke-opacity:1;marker:none;color-rendering:auto;image-rendering:auto;shape-rendering:auto;text-rendering:auto;enable-background:accumulate"
       id="rect4136-3-9-9-2-4-8-6-6-3"
       width="30.351765"
       height="131.69653"
       x="199.63518"
       y="-91.361481"
       rx="1.32582"
       ry="1.32582" />
    <rect
       style="color:#000000;clip-rule:nonzero;display:inline;overflow:visible;visibility:visible;opacity:1;isolation:auto;mix-blend-mode:normal;color-interpolation:sRGB;color-interpolation-filters:linearRGB;solid-color:#000000;solid-opacity:1;fill:#828282;fill-opacity:0.28625955;fill-rule:nonzero;stroke:#767676;stroke-width:1.24999988;stroke-linecap:butt;stroke-linejoin:miter;stroke-miterlimit:2;stroke-dasharray:none;stroke-dashoffset:0;stroke-opacity:1;marker:none;color-rendering:auto;image-rendering:auto;shape-rendering:auto;text-rendering:auto;enable-background:accumulate"
       id="rect4136-3-9-9-2-4-8-6-6-3-2"
       width="30.351765"
       height="131.69653"
       x="239.63518"
       y="-91.361481"
       rx="1.32582"
       ry="1.32582" />
    <rect
       style="color:#000000;clip-rule:nonzero;display:inline;overflow:visible;visibility:visible;opacity:1;isolation:auto;mix-blend-mode:normal;color-interpolation:sRGB;color-interpolation-filters:linearRGB;solid-color:#000000;solid-opacity:1;fill:#828282;fill-opacity:0.28625955;fill-rule:nonzero;stroke:#767676;stroke-width:1.24999988;stroke-linecap:butt;stroke-linejoin:miter;stroke-miterlimit:2;stroke-dasharray:none;stroke-dashoffset:0;stroke-opacity:1;marker:none;color-rendering:auto;image-rendering:auto;shape-rendering:auto;text-rendering:auto;enable-background:accumulate"
       id="rect4136-3-9-9-2-4-8-6-6-3-2-0"
       width="30.351765"
       height="131.69653"
       x="279.63519"
       y="-91.361481"
       rx="1.32582"
       ry="1.32582" />
    <text
       xml:space="preserve"
       style="font-style:normal;font-variant:normal;font-weight:normal;font-stretch:normal;font-size:17.92749786px;line-height:0%;font-family:'Marketing Script';-inkscape-font-specification:'Marketing Script';text-align:start;letter-spacing:0px;word-spacing:0px;text-anchor:start;fill:#767676;fill-opacity:1;stroke:none;stroke-width:1px;stroke-linecap:butt;stroke-linejoin:miter;stroke-opacity:1"
       x="-35.823341"
       y="181.33202"
       id="text4146-6-1-3-5-0-9-6"
       sodipodi:linespacing="0%"
       transform="matrix(0,-1.0001472,0.99985282,0,0,0)"><tspan
         sodipodi:role="line"
         id="tspan4148-7-2-74-4-7-2-1"
         x="-35.823341"
         y="181.33202"
         style="font-style:normal;font-variant:normal;font-weight:500;font-stretch:normal;font-family:Orbitron;-inkscape-font-specification:'Orbitron Medium';text-align:start;text-anchor:start;fill:#767676;fill-opacity:1">helm</tspan></text>
    <text
       xml:space="preserve"
       style="font-style:normal;font-variant:normal;font-weight:normal;font-stretch:normal;font-size:17.92749786px;line-height:0%;font-family:'Marketing Script';-inkscape-font-specification:'Marketing Script';text-align:start;letter-spacing:0px;word-spacing:0px;text-anchor:start;fill:#767676;fill-opacity:1;stroke:none;stroke-width:1px;stroke-linecap:butt;stroke-linejoin:miter;stroke-opacity:1"
       x="-35.823338"
       y="221.33791"
       id="text4146-6-1-3-5-0-9-6-5"
       sodipodi:linespacing="0%"
       transform="matrix(0,-1.0001472,0.99985282,0,0,0)"><tspan
         sodipodi:role="line"
         id="tspan4148-7-2-74-4-7-2-1-5"
         x="-35.823338"
         y="221.33791"
         style="font-style:normal;font-variant:normal;font-weight:500;font-stretch:normal;font-family:Orbitron;-inkscape-font-specification:'Orbitron Medium';text-align:start;text-anchor:start;fill:#767676;fill-opacity:1">tactical</tspan></text>
    <text
       xml:space="preserve"
       style="font-style:normal;font-variant:normal;font-weight:normal;font-stretch:normal;font-size:17.92749786px;line-height:0%;font-family:'Marketing Script';-inkscape-font-specification:'Marketing Script';text-align:start;letter-spacing:0px;word-spacing:0px;text-anchor:start;fill:#767676;fill-opacity:1;stroke:none;stroke-width:1px;stroke-linecap:butt;stroke-linejoin:miter;stroke-opacity:1"
       x="-35.823334"
       y="261.34378"
       id="text4146-6-1-3-5-0-9-6-5-4"
       sodipodi:linespacing="0%"
       transform="matrix(0,-1.0001472,0.99985282,0,0,0)"><tspan
         sodipodi:role="line"
         id="tspan4148-7-2-74-4-7-2-1-5-7"
         x="-35.823334"
         y="261.34378"
         style="font-style:normal;font-variant:normal;font-weight:500;font-stretch:normal;font-family:Orbitron;-inkscape-font-specification:'Orbitron Medium';text-align:start;text-anchor:start;fill:#767676;fill-opacity:1">science</tspan></text>
    <text
       xml:space="preserve"
       style="font-style:normal;font-variant:normal;font-weight:normal;font-stretch:normal;font-size:17.92749786px;line-height:0%;font-family:'Marketing Script';-inkscape-font-specification:'Marketing Script';text-align:start;letter-spacing:0px;word-spacing:0px;text-anchor:start;fill:#767676;fill-opacity:1;stroke:none;stroke-width:1px;stroke-linecap:butt;stroke-linejoin:miter;stroke-opacity:1"
       x="-35.823338"
       y="301.34964"
       id="text4146-6-1-3-5-0-9-6-5-4-6"
       sodipodi:linespacing="0%"
       transform="matrix(0,-1.0001472,0.99985282,0,0,0)"><tspan
         sodipodi:role="line"
         id="tspan4148-7-2-74-4-7-2-1-5-7-5"
         x="-35.823338"
         y="301.34964"
         style="font-style:normal;font-variant:normal;font-weight:500;font-stretch:normal;font-family:Orbitron;-inkscape-font-specification:'Orbitron Medium';text-align:start;text-anchor:start;fill:#767676;fill-opacity:1">engineering</tspan></text>
    <rect
       style="color:#000000;clip-rule:nonzero;display:inline;overflow:visible;visibility:visible;opacity:1;isolation:auto;mix-blend-mode:normal;color-interpolation:sRGB;color-interpolation-filters:linearRGB;solid-color:#000000;solid-opacity:1;fill:#828282;fill-opacity:0.28625955;fill-rule:nonzero;stroke:#767676;stroke-width:1.24999988;stroke-linecap:butt;stroke-linejoin:miter;stroke-miterlimit:2;stroke-dasharray:none;stroke-dashoffset:0;stroke-opacity:1;marker:none;color-rendering:auto;image-rendering:auto;shape-rendering:auto;text-rendering:auto;enable-background:accumulate"
       id="rect4136-3-9-9-2-4-8-6-6-3-2-0-6"
       width="30.351765"
       height="131.69653"
       x="319.63519"
       y="-91.361481"
       rx="1.32582"
       ry="1.32582" />
    <text
       xml:space="preserve"
       style="font-style:normal;font-variant:normal;font-weight:normal;font-stretch:normal;font-size:17.92749786px;line-height:0%;font-family:'Marketing Script';-inkscape-font-specification:'Marketing Script';text-align:start;letter-spacing:0px;word-spacing:0px;text-anchor:start;fill:#767676;fill-opacity:1;stroke:none;stroke-width:1px;stroke-linecap:butt;stroke-linejoin:miter;stroke-opacity:1"
       x="-35.823345"
       y="341.3555"
       id="text4146-6-1-3-5-0-9-6-5-4-6-9"
       sodipodi:linespacing="0%"
       transform="matrix(0,-1.0001472,0.99985282,0,0,0)"><tspan
         sodipodi:role="line"
         id="tspan4148-7-2-74-4-7-2-1-5-7-5-3"
         x="-35.823345"
         y="341.3555"
         style="font-style:normal;font-variant:normal;font-weight:500;font-stretch:normal;font-family:Orbitron;-inkscape-font-specification:'Orbitron Medium';text-align:start;text-anchor:start;fill:#767676;fill-opacity:1">main screen</tspan></text>
    <rect
       style="color:#000000;clip-rule:nonzero;display:inline;overflow:visible;visibility:visible;opacity:1;isolation:auto;mix-blend-mode:normal;color-interpolation:sRGB;color-interpolation-filters:linearRGB;solid-color:#000000;solid-opacity:1;fill:#828282;fill-opacity:0.28625955;fill-rule:nonzero;stroke:#767676;stroke-width:1.25;stroke-linecap:butt;stroke-linejoin:miter;stroke-miterlimit:2;stroke-dasharray:none;stroke-dashoffset:0;stroke-opacity:1;marker:none;color-rendering:auto;image-rendering:auto;shape-rendering:auto;text-rendering:auto;enable-background:accumulate"
       id="rect4136-3-9-9-2-4-8-6-4-7"
       width="166.89822"
       height="116.73317"
       x="543.43213"
       y="-155.30672"
       rx="1.3258201"
       ry="1.3258201" />
    <text
       xml:space="preserve"
       style="font-style:normal;font-variant:normal;font-weight:normal;font-stretch:normal;font-size:17.92749786px;line-height:0%;font-family:'Marketing Script';-inkscape-font-specification:'Marketing Script';text-align:start;letter-spacing:0px;word-spacing:0px;text-anchor:start;fill:#7d96a3;fill-opacity:1;stroke:none;stroke-width:1px;stroke-linecap:butt;stroke-linejoin:miter;stroke-opacity:1"
       x="550.73309"
       y="-135.59323"
       id="text4146-6-1-3-5-7-5-4"
       sodipodi:linespacing="0%"
       transform="scale(1.0001472,0.99985282)"><tspan
         sodipodi:role="line"
         id="tspan4148-7-2-74-4-5-0-5"
         x="550.73309"
         y="-135.59323"
         style="font-style:normal;font-variant:normal;font-weight:500;font-stretch:normal;font-family:Orbitron;-inkscape-font-specification:'Orbitron Medium';text-align:start;text-anchor:start;fill:#7d96a3;fill-opacity:1">game</tspan></text>
    <rect
       style="color:#000000;clip-rule:nonzero;display:inline;overflow:visible;visibility:visible;opacity:1;isolation:auto;mix-blend-mode:normal;color-interpolation:sRGB;color-interpolation-filters:linearRGB;solid-color:#000000;solid-opacity:1;fill:none;fill-opacity:0.28625955;fill-rule:nonzero;stroke:#7d96a3;stroke-width:1.24999988;stroke-linecap:butt;stroke-linejoin:miter;stroke-miterlimit:2;stroke-dasharray:4.99999988, 2.49999994;stroke-dashoffset:0;stroke-opacity:1;marker:none;color-rendering:auto;image-rendering:auto;shape-rendering:auto;text-rendering:auto;enable-background:accumulate"
       id="rect4136-3-9-8-3-8-6-2"
       width="152.31172"
       height="77.192886"
       x="550.98712"
       y="-123.75106"
       rx="1.3258196"
       ry="1.32582" />
    <text
       xml:space="preserve"
       style="font-style:normal;font-variant:normal;font-weight:normal;font-stretch:normal;font-size:17.92749786px;line-height:0%;font-family:'Marketing Script';-inkscape-font-specification:'Marketing Script';text-align:start;letter-spacing:0px;word-spacing:0px;text-anchor:start;fill:#7d96a3;fill-opacity:1;stroke:none;stroke-width:1px;stroke-linecap:butt;stroke-linejoin:miter;stroke-opacity:1"
       x="557.48254"
       y="-99.767723"
       id="text4146-6-1-3-5-0-9-1-5"
       sodipodi:linespacing="0%"
       transform="scale(1.0001472,0.99985282)"><tspan
         sodipodi:role="line"
         id="tspan4148-7-2-74-4-7-2-0-4"
         x="557.48254"
         y="-99.767723"
         style="font-style:normal;font-variant:normal;font-weight:500;font-stretch:normal;font-family:Orbitron;-inkscape-font-specification:'Orbitron Medium';text-align:start;text-anchor:start;fill:#7d96a3;fill-opacity:1">players</tspan></text>
    <rect
       style="color:#000000;clip-rule:nonzero;display:inline;overflow:visible;visibility:visible;opacity:1;isolation:auto;mix-blend-mode:normal;color-interpolation:sRGB;color-interpolation-filters:linearRGB;solid-color:#000000;solid-opacity:1;fill:#828282;fill-opacity:0.28625955;fill-rule:nonzero;stroke:#767676;stroke-width:1.24999976;stroke-linecap:butt;stroke-linejoin:miter;stroke-miterlimit:2;stroke-dasharray:none;stroke-dashoffset:0;stroke-opacity:1;marker:none;color-rendering:auto;image-rendering:auto;shape-rendering:auto;text-rendering:auto;enable-background:accumulate"
       id="rect4136-3-9-9-2-4-8-6-6-7"
       width="21.161694"
       height="36.696533"
       x="561.06372"
       y="-89.932907"
       rx="1.32582"
       ry="1.32582" />
    <rect
       style="color:#000000;clip-rule:nonzero;display:inline;overflow:visible;visibility:visible;opacity:1;isolation:auto;mix-blend-mode:normal;color-interpolation:sRGB;color-interpolation-filters:linearRGB;solid-color:#000000;solid-opacity:1;fill:#828282;fill-opacity:0.28625955;fill-rule:nonzero;stroke:#767676;stroke-width:1.24999976;stroke-linecap:butt;stroke-linejoin:miter;stroke-miterlimit:2;stroke-dasharray:none;stroke-dashoffset:0;stroke-opacity:1;marker:none;color-rendering:auto;image-rendering:auto;shape-rendering:auto;text-rendering:auto;enable-background:accumulate"
       id="rect4136-3-9-9-2-4-8-6-6-7-4"
       width="21.161694"
       height="36.696533"
       x="589.08179"
       y="-89.932899"
       rx="1.32582"
       ry="1.32582" />
    <rect
       style="color:#000000;clip-rule:nonzero;display:inline;overflow:visible;visibility:visible;opacity:1;isolation:auto;mix-blend-mode:normal;color-interpolation:sRGB;color-interpolation-filters:linearRGB;solid-color:#000000;solid-opacity:1;fill:#828282;fill-opacity:0.28625955;fill-rule:nonzero;stroke:#767676;stroke-width:1.24999976;stroke-linecap:butt;stroke-linejoin:miter;stroke-miterlimit:2;stroke-dasharray:none;stroke-dashoffset:0;stroke-opacity:1;marker:none;color-rendering:auto;image-rendering:auto;shape-rendering:auto;text-rendering:auto;enable-background:accumulate"
       id="rect4136-3-9-9-2-4-8-6-6-7-4-4"
       width="21.161694"
       height="36.696533"
       x="617.09979"
       y="-89.932899"
       rx="1.32582"
       ry="1.32582" />
    <rect
       style="color:#000000;clip-rule:nonzero;display:inline;overflow:visible;visibility:visible;opacity:1;isolation:auto;mix-blend-mode:normal;color-interpolation:sRGB;color-interpolation-filters:linearRGB;solid-color:#000000;solid-opacity:1;fill:#828282;fill-opacity:0.28625955;fill-rule:nonzero;stroke:#767676;stroke-width:1.24999976;stroke-linecap:butt;stroke-linejoin:miter;stroke-miterlimit:2;stroke-dasharray:none;stroke-dashoffset:0;stroke-opacity:1;marker:none;color-rendering:auto;image-rendering:auto;shape-rendering:auto;text-rendering:auto;enable-background:accumulate"
       id="rect4136-3-9-9-2-4-8-6-6-7-4-4-3"
       width="21.161694"
       height="36.696533"
       x="645.11786"
       y="-89.932899"
       rx="1.32582"
       ry="1.32582" />
    <rect
       style="color:#000000;clip-rule:nonzero;display:inline;overflow:visible;visibility:visible;opacity:1;isolation:auto;mix-blend-mode:normal;color-interpolation:sRGB;color-interpolation-filters:linearRGB;solid-color:#000000;solid-opacity:1;fill:#828282;fill-opacity:0.28625955;fill-rule:nonzero;stroke:#767676;stroke-width:1.24999976;stroke-linecap:butt;stroke-linejoin:miter;stroke-miterlimit:2;stroke-dasharray:none;stroke-dashoffset:0;stroke-opacity:1;marker:none;color-rendering:auto;image-rendering:auto;shape-rendering:auto;text-rendering:auto;enable-background:accumulate"
       id="rect4136-3-9-9-2-4-8-6-6-7-4-4-3-0"
       width="21.161694"
       height="36.696533"
       x="673.13593"
       y="-89.932899"
       rx="1.32582"
       ry="1.32582" />
    <rect
       style="color:#000000;clip-rule:nonzero;display:inline;overflow:visible;visibility:visible;opacity:1;isolation:auto;mix-blend-mode:normal;color-interpolation:sRGB;color-interpolation-filters:linearRGB;solid-color:#000000;solid-opacity:1;fill:#828282;fill-opacity:0.28625955;fill-rule:nonzero;stroke:#767676;stroke-width:1.24999988;stroke-linecap:butt;stroke-linejoin:miter;stroke-miterlimit:2;stroke-dasharray:none;stroke-dashoffset:0;stroke-opacity:1;marker:none;color-rendering:auto;image-rendering:auto;shape-rendering:auto;text-rendering:auto;enable-background:accumulate"
       id="rect4136-3-9-9-2-4-8-6-4-8"
       width="142.46384"
       height="38.701229"
       x="823.43213"
       y="-155.30672"
       rx="1.3258201"
       ry="1.3258202" />
    <text
       xml:space="preserve"
       style="font-style:normal;font-variant:normal;font-weight:normal;font-stretch:normal;font-size:17.92749786px;line-height:0%;font-family:'Marketing Script';-inkscape-font-specification:'Marketing Script';text-align:start;letter-spacing:0px;word-spacing:0px;text-anchor:start;fill:#7d96a3;fill-opacity:1;stroke:none;stroke-width:1px;stroke-linecap:butt;stroke-linejoin:miter;stroke-opacity:1"
       x="830.69208"
       y="-135.59323"
       id="text4146-6-1-3-5-7-5-8"
       sodipodi:linespacing="0%"
       transform="scale(1.0001472,0.99985282)"><tspan
         sodipodi:role="line"
         id="tspan4148-7-2-74-4-5-0-4"
         x="830.69208"
         y="-135.59323"
         style="font-style:normal;font-variant:normal;font-weight:500;font-stretch:normal;font-family:Orbitron;-inkscape-font-specification:'Orbitron Medium';text-align:start;text-anchor:start;fill:#7d96a3;fill-opacity:1">plugin library</tspan></text>
    <rect
       style="color:#000000;clip-rule:nonzero;display:inline;overflow:visible;visibility:visible;opacity:1;isolation:auto;mix-blend-mode:normal;color-interpolation:sRGB;color-interpolation-filters:linearRGB;solid-color:#000000;solid-opacity:1;fill:#828282;fill-opacity:0.28625955;fill-rule:nonzero;stroke:#767676;stroke-width:1.25;stroke-linecap:butt;stroke-linejoin:miter;stroke-miterlimit:2;stroke-dasharray:none;stroke-dashoffset:0;stroke-opacity:1;marker:none;color-rendering:auto;image-rendering:auto;shape-rendering:auto;text-rendering:auto;enable-background:accumulate"
       id="rect4136-3-9-9-2-4-8-6-2-2-3"
       width="159.65129"
       height="76.421692"
       x="679.43213"
       y="204.69328"
       rx="1.32582"
       ry="1.3258201" />
    <text
       xml:space="preserve"
       style="font-style:normal;font-variant:normal;font-weight:normal;font-stretch:normal;font-size:17.92749786px;line-height:0%;font-family:'Marketing Script';-inkscape-font-specification:'Marketing Script';text-align:start;letter-spacing:0px;word-spacing:0px;text-anchor:start;fill:#7d96a3;fill-opacity:1;stroke:none;stroke-width:1px;stroke-linecap:butt;stroke-linejoin:miter;stroke-opacity:1"
       x="686.7132"
       y="224.45978"
       id="text4146-6-1-3-5-7-9-7-1"
       sodipodi:linespacing="0%"
       transform="scale(1.0001472,0.99985282)"><tspan
         sodipodi:role="line"
         id="tspan4148-7-2-74-4-5-1-0-4"
         x="686.7132"
         y="224.45978"
         style="font-style:normal;font-variant:normal;font-weight:500;font-stretch:normal;font-family:Orbitron;-inkscape-font-specification:'Orbitron Medium';text-align:start;text-anchor:start;fill:#7d96a3;fill-opacity:1">EventBroker</tspan></text>
  </g>
</svg>
